Suite/Test/Step Name,Browser,Description,Tag,Start time,End time,Duration,Status
03 Hotlink Prepaid Sanity,Chrome 100.0.4896.75,,,2022-04-12 12:18:14,2022-04-12 12:21:59,3m - 44.879s,ERROR
,,,,,,,
Test Cases/00 Daily Sanity/03 - Hotlink Prepaid/03.02 Top Up,Chrome 100.0.4896.75,,,2022-04-12 12:18:15,2022-04-12 12:19:05,49.712s,ERROR
"callTestCase(findTestCase(""01_Retailer Portal/RP-TMPL-05 HOTLINK PREPAID TOPUP""), [""msisdn"":msisdn], STOP_ON_FAILURE)",Chrome 100.0.4896.75,,,2022-04-12 12:18:16,2022-04-12 12:19:02,45.973s,ERROR
Video,Chrome 100.0.4896.75,,,2022-04-12 12:19:05,2022-04-12 12:19:05,0.001s,PASSED
,,,,,,,
Test Cases/00 Daily Sanity/03 - Hotlink Prepaid/03.03 View Balance,Chrome 100.0.4896.75,,,2022-04-12 12:19:05,2022-04-12 12:20:32,1m - 27.556s,FAILED
"callTestCase(findTestCase(""01_Retailer Portal/RP01_Login_Page/RP01_1 Log into Retailer Portal""), [:], STOP_ON_FAILURE)",Chrome 100.0.4896.75,,,2022-04-12 12:19:06,2022-04-12 12:19:44,38.064s,PASSED
"callTestCase(findTestCase(""01_Retailer Portal/RP02_Search Customer_Page/RP02_1 Search Customer""), [""idType"":""MSISDN"", ""idValue"":msisdn, ""accountNo"":""""], STOP_ON_FAILURE)",Chrome 100.0.4896.75,,,2022-04-12 12:19:44,2022-04-12 12:19:57,12.815s,PASSED
"enhancedClick(findTestObject(""01_Retailer Portal_Objects/RP03_CIC Dashboard_Page_Objects/i_expand_more_PrepaidAccount""))",Chrome 100.0.4896.75,,,2022-04-12 12:19:57,2022-04-12 12:19:58,1.111s,PASSED
"if (verifyElementClickable(findTestObject(""01_Retailer Portal_Objects/RP03_CIC Dashboard_Page_Objects/a_prepaid_keyboard_arrow_right"", [""msisdn"":msisdn])) == false)",Chrome 100.0.4896.75,,,2022-04-12 12:19:58,2022-04-12 12:20:30,32.014s,FAILED
Video,Chrome 100.0.4896.75,,,2022-04-12 12:20:32,2022-04-12 12:20:32,0.001s,PASSED
,,,,,,,
Test Cases/00 Daily Sanity/03 - Hotlink Prepaid/03.04 Monthly Pass Purchase,Chrome 100.0.4896.75,,,2022-04-12 12:20:32,2022-04-12 12:21:59,1m - 26.621s,FAILED
"callTestCase(findTestCase(""01_Retailer Portal/RP-TMPL-06 HOTLINK PASS PURCHASE""), [""msisdn"":msisdn], STOP_ON_FAILURE)",Chrome 100.0.4896.75,,,2022-04-12 12:20:34,2022-04-12 12:21:56,1m - 22.586s,FAILED
Video,Chrome 100.0.4896.75,,,2022-04-12 12:21:59,2022-04-12 12:21:59,0.001s,PASSED
