Suite/Test/Step Name,Browser,Description,Tag,Start time,End time,Duration,Status
02 Standalone Broadband - Fixed Wireless Sanity,Chrome 100.0.4896.75,,,2022-04-12 12:52:33,2022-04-12 12:57:29,4m - 56.227s,PASSED
,,,,,,,
Test Cases/00 Daily Sanity/02 Standalone Broadband - Fixed Wireless/02.01 Provide Order,Chrome 100.0.4896.75,,,2022-04-12 12:52:34,2022-04-12 12:56:37,4m - 2.732s,PASSED
"callTestCase(findTestCase(""01_Retailer Portal/RP-TMPL-01 NEW PLAN REGISTRATION NO DEVICE""), [""idType"":idType, ""idValue"":idValue, ""planId"":planId, ""customerName"":customerName, ""row"":row, ""msisdn"":"""", ""accountNo"":"""", ... ], STOP_ON_FAILURE)",Chrome 100.0.4896.75,,,2022-04-12 12:52:36,2022-04-12 12:56:33,3m - 56.853s,PASSED
,,,,,,,
Test Cases/00 Daily Sanity/02 Standalone Broadband - Fixed Wireless/02.03 Search Subscription,Chrome 100.0.4896.75,,,2022-04-12 12:56:37,2022-04-12 12:57:29,52.176s,PASSED
"callTestCase(findTestCase(""01_Retailer Portal/RP01_Login_Page/RP01_1 Log into Retailer Portal""), [""username"":""SUPERRR"", ""password"":""test""], STOP_ON_FAILURE)",Chrome 100.0.4896.75,,,2022-04-12 12:56:38,2022-04-12 12:57:14,36.480s,PASSED
"callTestCase(findTestCase(""01_Retailer Portal/RP02_Search Customer_Page/RP02_1 Search Customer""), [""idType"":""ServiceID"", ""idValue"":msisdn, ""accountNo"":""""], STOP_ON_FAILURE)",Chrome 100.0.4896.75,,,2022-04-12 12:57:14,2022-04-12 12:57:25,10.989s,PASSED
"verifyTextPresent(""Searched By ServiceID 60121858060"", false)",Chrome 100.0.4896.75,,,2022-04-12 12:57:25,2022-04-12 12:57:26,0.642s,PASSED
"verifyTextPresent(""Maxis Home 4G WiFi 138"", false)",Chrome 100.0.4896.75,,,2022-04-12 12:57:26,2022-04-12 12:57:27,0.583s,PASSED
