{
  "log" : {
    "version" : "1.2",
    "pages" : [ ],
    "entries" : [ {
      "startedDateTime" : "2022-03-29T10:43:10.422Z",
      "request" : {
        "method" : "GET",
        "url" : "https://api.airtable.com/v0/app62NN1ybvoV2cif/inventoryMaxisPostpaidSIM?maxRecords=1&view=availableInventory",
        "httpVersion" : "",
        "cookies" : [ ],
        "headers" : [ {
          "name" : "Authorization",
          "value" : "Bearer keycJxrTMyq74SnXc"
        }, {
          "name" : "Content-Type ",
          "value" : "application/json; charset=utf-8"
        }, {
          "name" : "Server ",
          "value" : "Tengine"
        }, {
          "name" : "Vary",
          "value" : "Accept-Encoding"
        }, {
          "name" : "airtable-uncompressed-content-length",
          "value" : "339"
        }, {
          "name" : "content-encoding",
          "value" : "gzip"
        } ],
        "queryString" : [ {
          "name" : "maxRecords",
          "value" : "1"
        }, {
          "name" : "view",
          "value" : "availableInventory"
        } ],
        "headersSize" : 0,
        "bodySize" : 0,
        "comment" : ""
      },
      "response" : {
        "status" : 200,
        "statusText" : "",
        "httpVersion" : "",
        "cookies" : [ ],
        "headers" : [ {
          "name" : "airtable-uncompressed-content-length",
          "value" : "165"
        }, {
          "name" : "Server",
          "value" : "Tengine"
        }, {
          "name" : "X-Content-Type-Options",
          "value" : "nosniff"
        }, {
          "name" : "access-control-allow-headers",
          "value" : "authorization,content-length,content-type,user-agent,x-airtable-application-id,x-airtable-user-agent,x-api-version,x-requested-with"
        }, {
          "name" : "Connection",
          "value" : "keep-alive"
        }, {
          "name" : "access-control-allow-methods",
          "value" : "DELETE,GET,OPTIONS,PATCH,POST,PUT"
        }, {
          "name" : "Date",
          "value" : "Tue, 29 Mar 2022 10:43:06 GMT"
        }, {
          "name" : "access-control-allow-origin",
          "value" : "*"
        }, {
          "name" : "X-Frame-Options",
          "value" : "DENY"
        }, {
          "name" : "Strict-Transport-Security",
          "value" : "max-age=31536000; includeSubDomains; preload"
        }, {
          "name" : "Set-Cookie",
          "value" : "brw=brwCgGttQJf3cR1Wx; path=/; expires=Wed, 29 Mar 2023 10:43:06 GMT; domain=.airtable.com; samesite=none; secure"
        }, {
          "name" : "Vary",
          "value" : "Accept-Encoding"
        }, {
          "name" : "#status#",
          "value" : "HTTP/1.1 200 OK"
        }, {
          "name" : "Content-Type",
          "value" : "application/json; charset=utf-8"
        } ],
        "content" : {
          "size" : 165,
          "mimeType" : "application/json; charset=utf-8",
          "text" : "{\"records\":[{\"id\":\"recGX4LIAYLdx1UWC\",\"createdTime\":\"2022-03-24T05:42:45.000Z\",\"fields\":{\"simSerial\":\"8960011001218411490\",\"imsi\":\"502120121841149\",\"PUK1\":\"0123\"}}]}",
          "comment" : ""
        },
        "redirectURL" : "",
        "headersSize" : 655,
        "bodySize" : -1,
        "comment" : ""
      },
      "cache" : { },
      "timings" : {
        "comment" : "",
        "ssl" : -1,
        "connect" : 0,
        "blocked" : -1,
        "receive" : 0,
        "send" : 0,
        "wait" : 0,
        "dns" : -1
      },
      "comment" : "",
      "_katalonRequestInformation" : {
        "name" : "0",
        "testObjectId" : "Object Repository/98 Webservices Requests/WS1_Airtable_REST/GET Available Inventory",
        "harId" : "f204c842-34b4-4e50-807e-8ca97552d256",
        "reportFolder" : null
      },
      "time" : 0
    } ],
    "comment" : ""
  }
}