Suite/Test/Step Name,Browser,Description,Tag,Start time,End time,Duration,Status
01 Maxis Postpaid Sanity,Chrome 100.0.4896.75,,,2022-04-12 11:51:43,2022-04-12 11:56:29,4m - 45.345s,PASSED
,,,,,,,
Test Cases/00 Daily Sanity/01 Maxis Postpaid/01.01 Provide Order,Chrome 100.0.4896.75,,,2022-04-12 11:51:44,2022-04-12 11:55:36,3m - 52.028s,PASSED
"callTestCase(findTestCase(""01_Retailer Portal/RP-TMPL-01 NEW PLAN REGISTRATION NO DEVICE""), [""idType"":idType, ""idValue"":idValue, ""planId"":planId, ""customerName"":customerName, ""row"":row, ""msisdn"":"""", ""accountNo"":"""", ... ], STOP_ON_FAILURE)",Chrome 100.0.4896.75,,,2022-04-12 11:51:46,2022-04-12 11:55:33,3m - 46.628s,PASSED
,,,,,,,
Test Cases/00 Daily Sanity/01 Maxis Postpaid/01.03 Search Subscription,Chrome 100.0.4896.75,,,2022-04-12 11:55:36,2022-04-12 11:56:29,52.313s,PASSED
"callTestCase(findTestCase(""01_Retailer Portal/RP01_Login_Page/RP01_1 Log into Retailer Portal""), [""username"":""SUPERRR"", ""password"":""test""], STOP_ON_FAILURE)",Chrome 100.0.4896.75,,,2022-04-12 11:55:37,2022-04-12 11:56:14,36.836s,PASSED
"callTestCase(findTestCase(""01_Retailer Portal/RP02_Search Customer_Page/RP02_1 Search Customer""), [""idType"":""ServiceID"", ""idValue"":idValue, ""accountNo"":""""], STOP_ON_FAILURE)",Chrome 100.0.4896.75,,,2022-04-12 11:56:14,2022-04-12 11:56:25,10.850s,PASSED
"verifyTextPresent(""Searched By ServiceID 60121858058"", false)",Chrome 100.0.4896.75,,,2022-04-12 11:56:25,2022-04-12 11:56:26,0.613s,PASSED
"verifyTextPresent(""Maxis Postpaid 108"", false)",Chrome 100.0.4896.75,,,2022-04-12 11:56:26,2022-04-12 11:56:26,0.578s,PASSED
