Suite/Test/Step Name,Browser,Description,Tag,Start time,End time,Duration,Status
00 WebPOS setup,Chrome 100.0.4896.75,,,2022-04-08 16:48:33,2022-04-08 16:49:19,45.823s,PASSED
,,,,,,,
Test Cases/02_Web POS/WP-TMPL-03 OPERATOR DECLARATION,Chrome 100.0.4896.75,,,2022-04-08 16:48:34,2022-04-08 16:49:19,45.326s,PASSED
"callTestCase(findTestCase(""02_Web POS/WP01_Login_Page/WP01_01 Login to WebPOS""), [:], STOP_ON_FAILURE)",Chrome 100.0.4896.75,,,2022-04-08 16:48:35,2022-04-08 16:49:00,25.702s,PASSED
"callTestCase(findTestCase(""02_Web POS/WP99_Teardown/WP99_02 WebPOS Operator Declaration""), [""expectedValue"":""""], STOP_ON_FAILURE)",Chrome 100.0.4896.75,,,2022-04-08 16:49:00,2022-04-08 16:49:19,18.753s,PASSED
