Suite/Test/Step Name,Browser,Description,Tag,Start time,End time,Duration,Status
02 Standalone Broadband - Fixed Wireless Sanity,Chrome 100.0.4896.88,,,2022-04-13 20:23:01,2022-04-13 20:26:22,3m - 21.005s,FAILED
,,,,,,,
Test Cases/00 Daily Sanity/02 Standalone Broadband - Fixed Wireless/02.01 Provide Order,Chrome 100.0.4896.88,,,2022-04-13 20:23:02,2022-04-13 20:25:15,2m - 12.394s,FAILED
"callTestCase(findTestCase(""01_Retailer Portal/RP-TMPL-01 NEW PLAN REGISTRATION NO DEVICE""), [""idType"":idType, ""idValue"":idValue, ""planId"":planId, ""customerName"":customerName, ""row"":row, ""msisdn"":"""", ""accountNo"":"""", ... ], STOP_ON_FAILURE)",Chrome 100.0.4896.88,,,2022-04-13 20:23:03,2022-04-13 20:25:12,2m - 8.556s,FAILED
Video,Chrome 100.0.4896.88,,,2022-04-13 20:25:15,2022-04-13 20:25:15,0.001s,PASSED
,,,,,,,
Test Cases/00 Daily Sanity/02 Standalone Broadband - Fixed Wireless/02.03 Search Subscription,Chrome 100.0.4896.88,,,2022-04-13 20:25:15,2022-04-13 20:26:22,1m - 7.838s,FAILED
"callTestCase(findTestCase(""01_Retailer Portal/RP01_Login_Page/RP01_1 Log into Retailer Portal""), [:], STOP_ON_FAILURE)",Chrome 100.0.4896.88,,,2022-04-13 20:25:15,2022-04-13 20:25:52,36.796s,PASSED
"callTestCase(findTestCase(""01_Retailer Portal/RP02_Search Customer_Page/RP02_1 Search Customer""), [""idType"":""ServiceID"", ""idValue"":msisdn, ""accountNo"":""""], STOP_ON_FAILURE)",Chrome 100.0.4896.88,,,2022-04-13 20:25:52,2022-04-13 20:26:19,26.958s,PASSED
"verifyTextPresent(""Searched By"", false)",Chrome 100.0.4896.88,,,2022-04-13 20:26:19,2022-04-13 20:26:19,0.508s,PASSED
"verifyTextPresent(planName, false)",Chrome 100.0.4896.88,,,2022-04-13 20:26:19,2022-04-13 20:26:20,0.667s,FAILED
Video,Chrome 100.0.4896.88,,,2022-04-13 20:26:22,2022-04-13 20:26:22,0.001s,PASSED
