Suite/Test/Step Name,Browser,Description,Tag,Start time,End time,Duration,Status
01 Maxis Postpaid Sanity,Chrome 100.0.4896.60,,,2022-04-04 13:18:06,2022-04-04 13:23:07,5m - 1.242s,FAILED
,,,,,,,
Test Cases/00 Daily Sanity/01 Maxis Postpaid/01.01 Provide Order,Chrome 100.0.4896.60,,,2022-04-04 13:18:07,2022-04-04 13:20:47,2m - 40.381s,PASSED
"callTestCase(findTestCase(""01_Retailer Portal/RP-TMPL-01 NEW PLAN REGISTRATION NO DEVICE""), [""idType"":idType, ""idValue"":idValue, ""planId"":planId, ""customerName"":customerName, ""row"":row, ""msisdn"":"""", ""accountNo"":"""", ... ], STOP_ON_FAILURE)",Chrome 100.0.4896.60,,,2022-04-04 13:18:08,2022-04-04 13:20:47,2m - 39.402s,PASSED
,,,,,,,
Test Cases/00 Daily Sanity/01 Maxis Postpaid/01.02a Order Completion - POC,Chrome 100.0.4896.60,,,2022-04-04 13:20:47,2022-04-04 13:22:46,1m - 58.651s,FAILED
"callTestCase(findTestCase(""02_Web POS/WP-TMPL-01 AMDOCS DASHBOARD ASSIGN INVENTORY FROM POOL AND PAYMENT - POC""), [""msisdn"":"""", ""simSerial"":"""", ""inventoryType"":inventoryType], STOP_ON_FAILURE)",Chrome 100.0.4896.60,,,2022-04-04 13:20:48,2022-04-04 13:22:46,1m - 57.880s,FAILED
,,,,,,,
Test Cases/00 Daily Sanity/01 Maxis Postpaid/01.03 Search Subscription,Chrome 100.0.4896.60,,,2022-04-04 13:22:46,2022-04-04 13:23:07,21.266s,PASSED
"callTestCase(findTestCase(""01_Retailer Portal/RP01_Login_Page/RP01_1 Log into Retailer Portal""), [""username"":""SUPERRR"", ""password"":""test""], STOP_ON_FAILURE)",Chrome 100.0.4896.60,,,2022-04-04 13:22:46,2022-04-04 13:22:58,11.875s,PASSED
"callTestCase(findTestCase(""01_Retailer Portal/RP02_Search Customer_Page/RP02_1 Search Customer""), [""idType"":""ServiceID"", ""idValue"":""60178498360"", ""accountNo"":""""], STOP_ON_FAILURE)",Chrome 100.0.4896.60,,,2022-04-04 13:22:58,2022-04-04 13:23:06,7.893s,PASSED
"verifyTextPresent(""Searched By ServiceID 60178498360"", false)",Chrome 100.0.4896.60,,,2022-04-04 13:23:06,2022-04-04 13:23:07,0.471s,PASSED
"verifyTextPresent(""Maxis Postpaid 128"", false)",Chrome 100.0.4896.60,,,2022-04-04 13:23:07,2022-04-04 13:23:07,0.431s,PASSED
