Suite/Test/Step Name,Browser,Description,Tag,Start time,End time,Duration,Status
03 Hotlink Prepaid Sanity,Chrome 100.0.4896.75,,,2022-04-11 14:17:22,2022-04-11 14:18:16,54.140s,ERROR
,,,,,,,
Test Cases/00 Daily Sanity/03 - Hotlink Prepaid/03.01 Starter Pack Registration,Chrome 100.0.4896.75,,,2022-04-11 14:17:23,2022-04-11 14:18:16,53.376s,ERROR
"callTestCase(findTestCase(""01_Retailer Portal/RP-TMPL-04 PREPAID STARTER PACK REGISTRATION - POC""), [""idValue"":"""", ""customerName"":"""", ""simSerial"":"""", ""msisdn"":"""", ""row"":""""], STOP_ON_FAILURE)",Chrome 100.0.4896.75,,,2022-04-11 14:17:24,2022-04-11 14:18:14,49.638s,ERROR
Video,Chrome 100.0.4896.75,,,2022-04-11 14:18:16,2022-04-11 14:18:16,0.002s,PASSED
