{
  "log" : {
    "version" : "1.2",
    "pages" : [ ],
    "entries" : [ {
      "startedDateTime" : "2022-04-11T08:08:50.311Z",
      "request" : {
        "method" : "GET",
        "url" : "https://api.airtable.com/v0/app62NN1ybvoV2cif/inventoryHotlinkStarterPack?maxRecords=1&view=availableInventory",
        "httpVersion" : "",
        "cookies" : [ ],
        "headers" : [ {
          "name" : "Authorization",
          "value" : "Bearer keycJxrTMyq74SnXc"
        }, {
          "name" : "Content-Type ",
          "value" : "application/json; charset=utf-8"
        }, {
          "name" : "Server ",
          "value" : "Tengine"
        }, {
          "name" : "Vary",
          "value" : "Accept-Encoding"
        }, {
          "name" : "airtable-uncompressed-content-length",
          "value" : "339"
        }, {
          "name" : "content-encoding",
          "value" : "gzip"
        } ],
        "queryString" : [ {
          "name" : "maxRecords",
          "value" : "1"
        }, {
          "name" : "view",
          "value" : "availableInventory"
        } ],
        "headersSize" : 0,
        "bodySize" : 0,
        "comment" : ""
      },
      "response" : {
        "status" : 200,
        "statusText" : "",
        "httpVersion" : "",
        "cookies" : [ ],
        "headers" : [ {
          "name" : "airtable-uncompressed-content-length",
          "value" : "174"
        }, {
          "name" : "Server",
          "value" : "Tengine"
        }, {
          "name" : "X-Content-Type-Options",
          "value" : "nosniff"
        }, {
          "name" : "access-control-allow-headers",
          "value" : "authorization,content-length,content-type,user-agent,x-airtable-application-id,x-airtable-user-agent,x-api-version,x-requested-with"
        }, {
          "name" : "Connection",
          "value" : "keep-alive"
        }, {
          "name" : "access-control-allow-methods",
          "value" : "DELETE,GET,OPTIONS,PATCH,POST,PUT"
        }, {
          "name" : "Date",
          "value" : "Mon, 11 Apr 2022 08:08:50 GMT"
        }, {
          "name" : "access-control-allow-origin",
          "value" : "*"
        }, {
          "name" : "X-Frame-Options",
          "value" : "DENY"
        }, {
          "name" : "Strict-Transport-Security",
          "value" : "max-age=31536000; includeSubDomains; preload"
        }, {
          "name" : "Set-Cookie",
          "value" : "brw=brw5C0FvGaMhqmn3s; path=/; expires=Tue, 11 Apr 2023 08:08:50 GMT; domain=.airtable.com; samesite=none; secure"
        }, {
          "name" : "Vary",
          "value" : "Accept-Encoding"
        }, {
          "name" : "#status#",
          "value" : "HTTP/1.1 200 OK"
        }, {
          "name" : "Content-Type",
          "value" : "application/json; charset=utf-8"
        } ],
        "content" : {
          "size" : 174,
          "mimeType" : "application/json; charset=utf-8",
          "text" : "{\"records\":[{\"id\":\"recyzV8IuJBw5p1RE\",\"createdTime\":\"2022-03-24T10:02:22.000Z\",\"fields\":{\"simSerial\":\"8960011001213125970\",\"imsi\":\"502120121312597\",\"msisdn\":\"60121312597\"}}]}",
          "comment" : ""
        },
        "redirectURL" : "",
        "headersSize" : 655,
        "bodySize" : -1,
        "comment" : ""
      },
      "cache" : { },
      "timings" : {
        "comment" : "",
        "connect" : 0,
        "ssl" : -1,
        "blocked" : -1,
        "receive" : 0,
        "send" : 0,
        "dns" : -1,
        "wait" : 0
      },
      "comment" : "",
      "_katalonRequestInformation" : {
        "name" : "2",
        "testObjectId" : "Object Repository/98 Webservices Requests/WS1_Airtable_REST/GET Available Inventory",
        "harId" : "f8d4ebc8-c55b-44f9-940a-e18bf58029b2",
        "reportFolder" : null
      },
      "time" : 0
    } ],
    "comment" : ""
  }
}