Suite/Test/Step Name,Browser,Description,Tag,Start time,End time,Duration,Status
01 Maxis Postpaid Sanity,Chrome 100.0.4896.127,,,2022-04-22 10:01:49,2022-04-22 10:03:40,1m - 51.128s,PASSED
,,,,,,,
Test Cases/00 Daily Sanity/01 Maxis Postpaid/01.03 Search Subscription,Chrome 100.0.4896.127,,,2022-04-22 10:01:50,2022-04-22 10:03:40,1m - 50.497s,PASSED
"callTestCase(findTestCase(""01_Retailer Portal/RP01_Login_Page/RP01_1 Log into Retailer Portal""), [:], STOP_ON_FAILURE)",Chrome 100.0.4896.127,,,2022-04-22 10:01:51,2022-04-22 10:02:47,56.639s,PASSED
"callTestCase(findTestCase(""01_Retailer Portal/RP02_Search Customer_Page/RP02_1 Search Customer""), [""idType"":""ServiceID"", ""idValue"":msisdn, ""accountNo"":""""], STOP_ON_FAILURE)",Chrome 100.0.4896.127,,,2022-04-22 10:02:47,2022-04-22 10:03:28,40.611s,PASSED
"verifyTextPresent(""Searched By"", false)",Chrome 100.0.4896.127,,,2022-04-22 10:03:28,2022-04-22 10:03:37,9.135s,PASSED
"verifyTextPresent(planName, false)",Chrome 100.0.4896.127,,,2022-04-22 10:03:37,2022-04-22 10:03:38,0.583s,PASSED
