Suite/Test/Step Name,Browser,Description,Tag,Start time,End time,Duration,Status
00 WebPOS setup,Chrome 100.0.4896.88,,,2022-04-15 10:28:20,2022-04-15 10:31:45,3m - 25.376s,FAILED
,,,,,,,
Test Cases/02_Web POS/WP-TMPL-03 OPERATOR DECLARATION,Chrome 100.0.4896.88,,,2022-04-15 10:28:20,2022-04-15 10:31:45,3m - 24.674s,FAILED
"callTestCase(findTestCase(""02_Web POS/WP01_Login_Page/WP01_01 Login to WebPOS""), [:], STOP_ON_FAILURE)",Chrome 100.0.4896.88,,,2022-04-15 10:28:22,2022-04-15 10:28:54,31.977s,PASSED
"callTestCase(findTestCase(""02_Web POS/WP99_Teardown/WP99_02 WebPOS Operator Declaration""), [""expectedValue"":""""], STOP_ON_FAILURE)",Chrome 100.0.4896.88,,,2022-04-15 10:28:54,2022-04-15 10:31:42,2m - 47.914s,FAILED
Video,Chrome 100.0.4896.88,,,2022-04-15 10:31:45,2022-04-15 10:31:45,0.002s,PASSED
