Suite/Test/Step Name,Browser,Description,Tag,Start time,End time,Duration,Status
03 Hotlink Prepaid Sanity,Chrome 100.0.4896.75,,,2022-04-11 16:29:04,2022-04-11 16:30:04,1m - 0.831s,ERROR
,,,,,,,
Test Cases/00 Daily Sanity/03 - Hotlink Prepaid/03.01 Starter Pack Registration,Chrome 100.0.4896.75,,,2022-04-11 16:29:04,2022-04-11 16:30:04,1m - 0.023s,ERROR
"callTestCase(findTestCase(""01_Retailer Portal/RP-TMPL-04 PREPAID STARTER PACK REGISTRATION - POC""), [""idValue"":idValue, ""customerName"":customerName, ""row"":row, ""inventoryType"":inventoryType], STOP_ON_FAILURE)",Chrome 100.0.4896.75,,,2022-04-11 16:29:06,2022-04-11 16:30:02,56.073s,ERROR
Video,Chrome 100.0.4896.75,,,2022-04-11 16:30:04,2022-04-11 16:30:04,0.000s,PASSED
