Suite/Test/Step Name,Browser,Description,Tag,Start time,End time,Duration,Status
WebPOS Operator Declaration,Chrome 100.0.4896.127,,,2022-04-22 10:31:10,2022-04-22 10:34:28,3m - 18.344s,PASSED
,,,,,,,
Test Cases/02_Web POS/Refactored WebPOS/WP02 New Business Day Operator Declaration,Chrome 100.0.4896.127,,,2022-04-22 10:31:10,2022-04-22 10:34:28,3m - 17.859s,PASSED
"callTestCase(findTestCase(""02_Web POS/Refactored WebPOS/WP01 Login to WebPOS""), [:], STOP_ON_FAILURE)",Chrome 100.0.4896.127,,,2022-04-22 10:31:11,2022-04-22 10:32:20,1m - 8.166s,PASSED
"ErrorShown = verifyElementPresent(findTestObject(""02_WebPOS_Objects/WP02_Maxis_WebPOS_Page_Objects/div_Error Business Date invalid""), 0, OPTIONAL)",Chrome 100.0.4896.127,,,2022-04-22 10:32:20,2022-04-22 10:32:51,31.458s,PASSED
if (ErrorShown == true),Chrome 100.0.4896.127,,,2022-04-22 10:32:51,2022-04-22 10:32:51,0.004s,PASSED
"doubleClick(findTestObject(""02_WebPOS_Objects/WP02_Maxis_WebPOS_Page_Objects/button_OK""), OPTIONAL)",Chrome 100.0.4896.127,,,2022-04-22 10:32:51,2022-04-22 10:33:22,31.342s,PASSED
"click(findTestObject(""02_WebPOS_Objects/WP02_Maxis_WebPOS_Page_Objects/a_Tab 2""), OPTIONAL)",Chrome 100.0.4896.127,,,2022-04-22 10:33:22,2022-04-22 10:33:24,1.125s,PASSED
"click(findTestObject(""02_WebPOS_Objects/WP02_Maxis_WebPOS_Page_Objects/a_Operator Declaration""), OPTIONAL)",Chrome 100.0.4896.127,,,2022-04-22 10:33:24,2022-04-22 10:33:25,1.254s,PASSED
"expectedValue = getText(findTestObject(""02_WebPOS_Objects/WP02_Maxis_WebPOS_Page_Objects/span_20306.88""), OPTIONAL)",Chrome 100.0.4896.127,,,2022-04-22 10:33:25,2022-04-22 10:33:57,32.013s,PASSED
"setText(findTestObject(""02_WebPOS_Objects/WP02_Maxis_WebPOS_Page_Objects/input_Cash_DeclaredAmount""), expectedValue, OPTIONAL)",Chrome 100.0.4896.127,,,2022-04-22 10:33:57,2022-04-22 10:33:57,0.429s,PASSED
"click(findTestObject(""02_WebPOS_Objects/WP02_Maxis_WebPOS_Page_Objects/button_Confirm Operator Declaration""))",Chrome 100.0.4896.127,,,2022-04-22 10:33:57,2022-04-22 10:33:59,1.252s,PASSED
"enhancedClick(findTestObject(""02_WebPOS_Objects/WP02_Maxis_WebPOS_Page_Objects/button_Operator Report Close""))",Chrome 100.0.4896.127,,,2022-04-22 10:33:59,2022-04-22 10:34:24,24.996s,PASSED
"click(findTestObject(""02_WebPOS_Objects/WP02_Maxis_WebPOS_Page_Objects/a_Tab 1""))",Chrome 100.0.4896.127,,,2022-04-22 10:34:24,2022-04-22 10:34:25,1.387s,PASSED
