{
  "log" : {
    "version" : "1.2",
    "pages" : [ ],
    "entries" : [ {
      "startedDateTime" : "2022-04-13T05:26:07.852Z",
      "request" : {
        "method" : "PATCH",
        "url" : "https://api.airtable.com/v0/app62NN1ybvoV2cif/inventoryMaxisPostpaidSIM",
        "httpVersion" : "",
        "cookies" : [ ],
        "headers" : [ {
          "name" : "Content-Type",
          "value" : "application/json"
        }, {
          "name" : "Authorization",
          "value" : "Bearer keycJxrTMyq74SnXc"
        } ],
        "queryString" : [ ],
        "postData" : {
          "mimeType" : "application/json",
          "text" : "{\n    \"records\": [\n        {\n            \"id\": \"recSzNy1bkUqoDUvO\" ,\n            \"fields\": {\n                \"Used\" : \"Yes\"\n            }\n        }\n    ]\n}",
          "comment" : ""
        },
        "headersSize" : 0,
        "bodySize" : 0,
        "comment" : ""
      },
      "response" : {
        "status" : 200,
        "statusText" : "",
        "httpVersion" : "",
        "cookies" : [ ],
        "headers" : [ {
          "name" : "Server",
          "value" : "Tengine"
        }, {
          "name" : "X-Content-Type-Options",
          "value" : "nosniff"
        }, {
          "name" : "access-control-allow-headers",
          "value" : "authorization,content-length,content-type,user-agent,x-airtable-application-id,x-airtable-user-agent,x-api-version,x-requested-with"
        }, {
          "name" : "Connection",
          "value" : "keep-alive"
        }, {
          "name" : "access-control-allow-methods",
          "value" : "DELETE,GET,OPTIONS,PATCH,POST,PUT"
        }, {
          "name" : "Date",
          "value" : "Wed, 13 Apr 2022 05:26:08 GMT"
        }, {
          "name" : "access-control-allow-origin",
          "value" : "*"
        }, {
          "name" : "X-Frame-Options",
          "value" : "DENY"
        }, {
          "name" : "Strict-Transport-Security",
          "value" : "max-age=31536000; includeSubDomains; preload"
        }, {
          "name" : "Set-Cookie",
          "value" : "brw=brwfOIJgyUtIZYlbO; path=/; expires=Thu, 13 Apr 2023 05:26:07 GMT; domain=.airtable.com; samesite=none; secure"
        }, {
          "name" : "Vary",
          "value" : "Accept-Encoding"
        }, {
          "name" : "#status#",
          "value" : "HTTP/1.1 200 OK"
        }, {
          "name" : "Content-Type",
          "value" : "application/json; charset=utf-8"
        } ],
        "content" : {
          "size" : 217,
          "mimeType" : "application/json; charset=utf-8",
          "text" : "{\"records\":[{\"id\":\"recSzNy1bkUqoDUvO\",\"createdTime\":\"2022-03-24T05:42:45.000Z\",\"fields\":{\"simSerial\":\"8960011001218411960\",\"imsi\":\"502120121841196\",\"PUK1\":\"0123\",\"Used\":\"Yes\",\"Date Used\":\"2022-04-13T05:26:08.000Z\"}}]}",
          "comment" : ""
        },
        "redirectURL" : "",
        "headersSize" : 616,
        "bodySize" : -1,
        "comment" : ""
      },
      "cache" : { },
      "timings" : {
        "comment" : "",
        "ssl" : -1,
        "dns" : -1,
        "send" : 0,
        "wait" : 0,
        "connect" : 0,
        "receive" : 0,
        "blocked" : -1
      },
      "comment" : "",
      "_katalonRequestInformation" : {
        "name" : "1",
        "testObjectId" : "Object Repository/98 Webservices Requests/WS1_Airtable_REST/PATCH Used Inventory",
        "harId" : "669fe1f2-782d-454d-85f9-93e92f5e21f7",
        "reportFolder" : null
      },
      "time" : 0
    } ],
    "comment" : ""
  }
}