{
  "log" : {
    "version" : "1.2",
    "pages" : [ ],
    "entries" : [ {
      "startedDateTime" : "2022-03-29T10:32:07.712Z",
      "request" : {
        "method" : "GET",
        "url" : "https://api.airtable.com/v0/app62NN1ybvoV2cif/inventoryMaxisPostpaidSIM?maxRecords=1&view=availableInventory",
        "httpVersion" : "",
        "cookies" : [ ],
        "headers" : [ {
          "name" : "Authorization",
          "value" : "Bearer keycJxrTMyq74SnXc"
        }, {
          "name" : "Content-Type ",
          "value" : "application/json; charset=utf-8"
        }, {
          "name" : "Server ",
          "value" : "Tengine"
        }, {
          "name" : "Vary",
          "value" : "Accept-Encoding"
        }, {
          "name" : "airtable-uncompressed-content-length",
          "value" : "339"
        }, {
          "name" : "content-encoding",
          "value" : "gzip"
        } ],
        "queryString" : [ {
          "name" : "maxRecords",
          "value" : "1"
        }, {
          "name" : "view",
          "value" : "availableInventory"
        } ],
        "headersSize" : 0,
        "bodySize" : 0,
        "comment" : ""
      },
      "response" : {
        "status" : 200,
        "statusText" : "",
        "httpVersion" : "",
        "cookies" : [ ],
        "headers" : [ {
          "name" : "airtable-uncompressed-content-length",
          "value" : "204"
        }, {
          "name" : "Server",
          "value" : "Tengine"
        }, {
          "name" : "X-Content-Type-Options",
          "value" : "nosniff"
        }, {
          "name" : "access-control-allow-headers",
          "value" : "authorization,content-length,content-type,user-agent,x-airtable-application-id,x-airtable-user-agent,x-api-version,x-requested-with"
        }, {
          "name" : "Connection",
          "value" : "keep-alive"
        }, {
          "name" : "access-control-allow-methods",
          "value" : "DELETE,GET,OPTIONS,PATCH,POST,PUT"
        }, {
          "name" : "Date",
          "value" : "Tue, 29 Mar 2022 10:32:04 GMT"
        }, {
          "name" : "access-control-allow-origin",
          "value" : "*"
        }, {
          "name" : "X-Frame-Options",
          "value" : "DENY"
        }, {
          "name" : "Strict-Transport-Security",
          "value" : "max-age=31536000; includeSubDomains; preload"
        }, {
          "name" : "Set-Cookie",
          "value" : "brw=brwWwL8AvOTaAUOve; path=/; expires=Wed, 29 Mar 2023 10:32:03 GMT; domain=.airtable.com; samesite=none; secure"
        }, {
          "name" : "Vary",
          "value" : "Accept-Encoding"
        }, {
          "name" : "#status#",
          "value" : "HTTP/1.1 200 OK"
        }, {
          "name" : "Content-Type",
          "value" : "application/json; charset=utf-8"
        } ],
        "content" : {
          "size" : 204,
          "mimeType" : "application/json; charset=utf-8",
          "text" : "{\"records\":[{\"id\":\"recrsQWMrp58uPNsx\",\"createdTime\":\"2022-03-24T05:42:45.000Z\",\"fields\":{\"simSerial\":\"8960011001218411470\",\"imsi\":\"502120121841147\",\"PUK1\":\"0123\",\"Date Used\":\"2022-03-24T10:15:41.000Z\"}}]}",
          "comment" : ""
        },
        "redirectURL" : "",
        "headersSize" : 655,
        "bodySize" : -1,
        "comment" : ""
      },
      "cache" : { },
      "timings" : {
        "comment" : "",
        "connect" : 0,
        "wait" : 0,
        "receive" : 0,
        "send" : 0,
        "dns" : -1,
        "blocked" : -1,
        "ssl" : -1
      },
      "comment" : "",
      "_katalonRequestInformation" : {
        "name" : "0",
        "testObjectId" : "Object Repository/98 Webservices Requests/WS1_Airtable_REST/GET Available Inventory",
        "harId" : "ceaffd33-e444-4368-a151-a22e8613fe9a",
        "reportFolder" : null
      },
      "time" : 0
    } ],
    "comment" : ""
  }
}