Suite/Test/Step Name,Browser,Description,Tag,Start time,End time,Duration,Status
01 Maxis Postpaid Sanity,Chrome 99.0.4844.82,,,2022-03-29 22:38:49,2022-03-29 22:40:14,1m - 24.446s,ERROR
,,,,,,,
Test Cases/00 Daily Sanity/01 Maxis Postpaid/01.02a Order Completion - POC,Chrome 99.0.4844.82,,,2022-03-29 22:38:50,2022-03-29 22:40:14,1m - 23.814s,ERROR
"callTestCase(findTestCase(""02_Web POS/WP-TMPL-01 AMDOCS DASHBOARD ASSIGN INVENTORY FROM POOL AND PAYMENT - POC""), [""msisdn"":"""", ""simSerial"":simSerial, ""inventoryType"":inventoryType], STOP_ON_FAILURE)",Chrome 99.0.4844.82,,,2022-03-29 22:38:50,2022-03-29 22:40:14,1m - 23.104s,ERROR
