Suite/Test/Step Name,Browser,Description,Tag,Start time,End time,Duration,Status
03 Hotlink Prepaid Sanity,Chrome 100.0.4896.75,,,2022-04-11 14:19:42,2022-04-11 14:20:32,50.043s,ERROR
,,,,,,,
Test Cases/00 Daily Sanity/03 - Hotlink Prepaid/03.01 Starter Pack Registration,Chrome 100.0.4896.75,,,2022-04-11 14:19:43,2022-04-11 14:20:32,49.236s,ERROR
"callTestCase(findTestCase(""01_Retailer Portal/RP-TMPL-04 PREPAID STARTER PACK REGISTRATION - POC""), [""idValue"":"""", ""customerName"":"""", ""simSerial"":"""", ""msisdn"":"""", ""row"":""""], STOP_ON_FAILURE)",Chrome 100.0.4896.75,,,2022-04-11 14:19:44,2022-04-11 14:20:30,45.405s,ERROR
Video,Chrome 100.0.4896.75,,,2022-04-11 14:20:32,2022-04-11 14:20:32,0.001s,PASSED
