{
  "log" : {
    "version" : "1.2",
    "pages" : [ ],
    "entries" : [ {
      "startedDateTime" : "2022-04-11T08:27:46.370Z",
      "request" : {
        "method" : "PATCH",
        "url" : "https://api.airtable.com/v0/app62NN1ybvoV2cif/inventoryHotlinkStarterPack",
        "httpVersion" : "",
        "cookies" : [ ],
        "headers" : [ {
          "name" : "Content-Type",
          "value" : "application/json"
        }, {
          "name" : "Authorization",
          "value" : "Bearer keycJxrTMyq74SnXc"
        } ],
        "queryString" : [ ],
        "postData" : {
          "mimeType" : "application/json",
          "text" : "{\n    \"records\": [\n        {\n            \"id\": \"rec2Dq6qXpg99iD5H\" ,\n            \"fields\": {\n                \"Used\" : \"Yes\"\n            }\n        }\n    ]\n}",
          "comment" : ""
        },
        "headersSize" : 0,
        "bodySize" : 0,
        "comment" : ""
      },
      "response" : {
        "status" : 422,
        "statusText" : "",
        "httpVersion" : "",
        "cookies" : [ ],
        "headers" : [ {
          "name" : "Server",
          "value" : "Tengine"
        }, {
          "name" : "X-Content-Type-Options",
          "value" : "nosniff"
        }, {
          "name" : "access-control-allow-headers",
          "value" : "authorization,content-length,content-type,user-agent,x-airtable-application-id,x-airtable-user-agent,x-api-version,x-requested-with"
        }, {
          "name" : "Connection",
          "value" : "keep-alive"
        }, {
          "name" : "access-control-allow-methods",
          "value" : "DELETE,GET,OPTIONS,PATCH,POST,PUT"
        }, {
          "name" : "Date",
          "value" : "Mon, 11 Apr 2022 08:27:46 GMT"
        }, {
          "name" : "access-control-allow-origin",
          "value" : "*"
        }, {
          "name" : "X-Frame-Options",
          "value" : "DENY"
        }, {
          "name" : "Strict-Transport-Security",
          "value" : "max-age=31536000; includeSubDomains; preload"
        }, {
          "name" : "ETag",
          "value" : "W/\"6c-3hiD0oD5CPDfMFy4qUBKGh1dTcE\""
        }, {
          "name" : "Set-Cookie",
          "value" : "brw=brwfDW3cjnHxuzFfo; path=/; expires=Tue, 11 Apr 2023 08:27:46 GMT; domain=.airtable.com; samesite=none; secure"
        }, {
          "name" : "Vary",
          "value" : "Accept-Encoding"
        }, {
          "name" : "#status#",
          "value" : "HTTP/1.1 422 Unprocessable Entity"
        }, {
          "name" : "Content-Length",
          "value" : "108"
        }, {
          "name" : "Content-Type",
          "value" : "application/json; charset=utf-8"
        } ],
        "content" : {
          "size" : 108,
          "mimeType" : "application/json; charset=utf-8",
          "text" : "{\"error\":{\"type\":\"ROW_DOES_NOT_EXIST\",\"message\":\"Record ID rec2Dq6qXpg99iD5H does not exist in this table\"}}",
          "comment" : ""
        },
        "redirectURL" : "",
        "headersSize" : 671,
        "bodySize" : 108,
        "comment" : ""
      },
      "cache" : { },
      "timings" : {
        "comment" : "",
        "blocked" : -1,
        "dns" : -1,
        "connect" : 0,
        "wait" : 0,
        "receive" : 0,
        "send" : 0,
        "ssl" : -1
      },
      "comment" : "",
      "_katalonRequestInformation" : {
        "name" : "1",
        "testObjectId" : "Object Repository/98 Webservices Requests/WS1_Airtable_REST/PATCH Used Inventory",
        "harId" : "2790f469-9107-4e6a-b2d9-f1889bb0312c",
        "reportFolder" : null
      },
      "time" : 0
    } ],
    "comment" : ""
  }
}