Suite/Test/Step Name,Browser,Description,Tag,Start time,End time,Duration,Status
01 Maxis Postpaid Sanity,Chrome 99.0.4844.82,,,2022-03-29 22:01:51,2022-03-29 22:07:13,5m - 22.085s,FAILED
,,,,,,,
Test Cases/00 Daily Sanity/01 Maxis Postpaid/01.01 Provide Order,Chrome 99.0.4844.82,,,2022-03-29 22:01:52,2022-03-29 22:05:37,3m - 45.064s,FAILED
"callTestCase(findTestCase(""01_Retailer Portal/RP-TMPL-01 NEW PLAN REGISTRATION NO DEVICE""), [""idType"":idType, ""idValue"":idValue, ""planId"":planId, ""customerName"":customerName, ""row"":row, ""msisdn"":"""", ""accountNo"":"""", ... ], STOP_ON_FAILURE)",Chrome 99.0.4844.82,,,2022-03-29 22:01:52,2022-03-29 22:05:37,3m - 44.175s,FAILED
,,,,,,,
Test Cases/00 Daily Sanity/01 Maxis Postpaid/01.02a Order Completion - POC,Chrome 99.0.4844.82,,,2022-03-29 22:05:37,2022-03-29 22:07:13,1m - 36.166s,FAILED
"callTestCase(findTestCase(""02_Web POS/WP-TMPL-01 AMDOCS DASHBOARD ASSIGN INVENTORY FROM POOL AND PAYMENT - POC""), [""msisdn"":"""", ""simSerial"":simSerial, ""inventoryType"":inventoryType], STOP_ON_FAILURE)",Chrome 99.0.4844.82,,,2022-03-29 22:05:37,2022-03-29 22:07:13,1m - 35.434s,FAILED
