Suite/Test/Step Name,Browser,Description,Tag,Start time,End time,Duration,Status
WebPosLogin,Chrome 100.0.4896.88,,,2022-04-14 13:17:34,2022-04-14 13:19:28,1m - 53.950s,PASSED
,,,,,,,
Test Cases/02_Web POS/WP01_Login_Page/WP01_01 Login to WebPOS,Chrome 100.0.4896.88,,,2022-04-14 13:17:35,2022-04-14 13:19:28,1m - 53.394s,PASSED
"openBrowser("""")",Chrome 100.0.4896.88,,,2022-04-14 13:17:36,2022-04-14 13:17:51,15.407s,PASSED
navigateToUrl(WebPOS_URL),Chrome 100.0.4896.88,,,2022-04-14 13:17:51,2022-04-14 13:17:55,3.276s,PASSED
"setText(findTestObject(""02_WebPOS_Objects/WP01_Login_Page_Objects/input_Online ID_txtUser""), WebPOS_Username)",Chrome 100.0.4896.88,,,2022-04-14 13:17:55,2022-04-14 13:17:58,3.258s,PASSED
"setText(findTestObject(""02_WebPOS_Objects/WP01_Login_Page_Objects/input_Password_txtPassword""), WebPOS_Password)",Chrome 100.0.4896.88,,,2022-04-14 13:17:58,2022-04-14 13:18:00,2.291s,PASSED
"click(findTestObject(""02_WebPOS_Objects/WP01_Login_Page_Objects/input_Password_btnLogin""))",Chrome 100.0.4896.88,,,2022-04-14 13:18:00,2022-04-14 13:18:52,51.555s,PASSED
"checkAnotherSessionExists = verifyElementPresent(findTestObject(""02_WebPOS_Objects/WP01_Login_Page_Objects/errorMessage""), 0, OPTIONAL)",Chrome 100.0.4896.88,,,2022-04-14 13:18:52,2022-04-14 13:19:25,33.381s,PASSED
if (checkAnotherSessionExists == true),Chrome 100.0.4896.88,,,2022-04-14 13:19:25,2022-04-14 13:19:25,0.014s,PASSED
